<?xml version="1.0" encoding="utf-8"?>
<!-- Generator: Adobe Illustrator 16.0.0, SVG Export Plug-In . SVG Version: 6.00 Build 0)  -->
<!DOCTYPE svg PUBLIC "-//W3C//DTD SVG 1.1//EN" "http://www.w3.org/Graphics/SVG/1.1/DTD/svg11.dtd">
<svg version="1.1" id="Layer_1" xmlns="http://www.w3.org/2000/svg" xmlns:xlink="http://www.w3.org/1999/xlink" x="0px" y="0px"
	 width="499.092px" height="97.754px" viewBox="0 0 499.092 97.754" enable-background="new 0 0 499.092 97.754"
	 xml:space="preserve">
<g>
	<path fill="#FFFFFF" d="M48.877,97.754c-13.535,0-25.065-4.762-34.59-14.287C4.762,73.942,0,62.412,0,48.877
		c0-13.489,4.762-24.996,14.287-34.521c9.524-9.524,21.055-14.287,34.59-14.287c13.489,0,24.996,4.763,34.521,14.287L64.189,33.564
		c-4.238-4.238-9.343-6.357-15.313-6.357c-6.016,0-11.143,2.119-15.381,6.357s-6.357,9.343-6.357,15.313
		c0,6.016,2.119,11.143,6.357,15.381s9.365,6.357,15.381,6.357c5.97,0,11.074-2.119,15.313-6.357l19.209,19.209
		C73.873,92.992,62.366,97.754,48.877,97.754z"/>
	<path fill="#FFFFFF" d="M194.824,0v97.754h-27.207V48.467l-24.404,34.932L118.74,48.467v49.287H91.602V0h26.318l25.293,36.025
		L168.438,0H194.824z"/>
	<path fill="#FFFFFF" d="M251.904,97.754c-13.49,0-24.997-4.785-34.521-14.355c-9.57-9.524-14.355-21.031-14.355-34.521
		c0-13.489,4.785-24.996,14.355-34.521C226.907,4.785,238.414,0,251.904,0c13.489,0,24.996,4.785,34.521,14.355
		c9.57,9.525,14.355,21.032,14.355,34.521c0,13.49-4.785,24.997-14.355,34.521C276.9,92.969,265.394,97.754,251.904,97.754z
		 M251.904,27.139c-5.971,0-11.098,2.119-15.381,6.357c-4.238,4.284-6.357,9.411-6.357,15.381c0,5.971,2.119,11.098,6.357,15.381
		c4.283,4.238,9.41,6.357,15.381,6.357c5.97,0,11.097-2.119,15.381-6.357c4.238-4.283,6.357-9.41,6.357-15.381
		c0-5.97-2.119-11.097-6.357-15.381C263.001,29.258,257.874,27.139,251.904,27.139z"/>
	<path fill="#FFFFFF" d="M357.861,97.754c-13.49,0-24.997-4.785-34.521-14.355c-9.57-9.524-14.355-21.031-14.355-34.521
		c0-13.489,4.785-24.996,14.355-34.521C332.864,4.785,344.371,0,357.861,0c13.489,0,24.996,4.785,34.521,14.355
		c9.57,9.525,14.355,21.032,14.355,34.521c0,13.49-4.785,24.997-14.355,34.521C382.857,92.969,371.351,97.754,357.861,97.754z
		 M357.861,27.139c-5.971,0-11.098,2.119-15.381,6.357c-4.238,4.284-6.357,9.411-6.357,15.381c0,5.971,2.119,11.098,6.357,15.381
		c4.283,4.238,9.41,6.357,15.381,6.357c5.97,0,11.097-2.119,15.381-6.357c4.238-4.283,6.357-9.41,6.357-15.381
		c0-5.97-2.119-11.097-6.357-15.381C368.958,29.258,363.831,27.139,357.861,27.139z"/>
	<path fill="#FFFFFF" d="M499.092,0v97.754h-24.404L442.08,51.201v46.553h-27.139V0h24.473l32.539,46.553V0H499.092z"/>
</g>
</svg>
